Analysis of three nuclear families with a single pediatric-cancer case using linked-read whole genome sequencing
…
This code chunk was used to generate data for Table 1 in the manuscript and Supplementary Table 1.

#Combine all raw data
combined_data_all <- combine_df(list(combined_homAlt_all, combined_deNovo_all, combined_het_all, combined_CH_all))

# Combine all data at gene level
gene_level_all <- combine_df(list(astrocytoma_CH_gene_level, astrocytoma_deNovo_gene_level, astrocytoma_homAlt_gene_level, astrocytoma_het_gene_level, lymphoma_CH_gene_level, lymphoma_deNovo_gene_level, lymphoma_het_gene_level, lymphoma_homAlt_gene_level, wilms_CH_gene_level, wilms_deNovo_gene_level, wilms_het_gene_level, wilms_homAlt_gene_level))

# Gene level summary (how many samples each potentially damaged gene has)
gene_level_summary_all <- group_by(gene_level_all, disease, gene) %>% summarise(num_samples_with_damage = length(unique(sample)))
write_tsv(gene_level_summary_all, "gene_level_summary.tsv")
gene_level_summary_all

## # A tibble: 84 x 3
## # Groups:   disease [3]
##    disease     gene     num_samples_with_damage
##    <chr>       <chr>                      <int>
##  1 astrocytoma ACADS                          1
##  2 astrocytoma ACOXL                          4
##  3 astrocytoma ALG1L2                         1
##  4 astrocytoma BST1                           5
##  5 astrocytoma CBWD5                          3
##  6 astrocytoma CRNKL1                         3
##  7 astrocytoma DAPL1                          3
##  8 astrocytoma DUOXA1                         3
##  9 astrocytoma FAM8A1                         2
## 10 astrocytoma GOLGA6L1                       1
## #  with 74 more rows
…
